out/wave.vcd
$date
	Sun Oct 19 18:14:11 2025
$end
$version
	Icarus Verilog
$end
$timescale
	1ps
$end
$scope module sqrt_mult_system_tb $end
$var wire 16 ! result [15:0] $end
$var wire 1 " done $end
$var parameter 32 # MAX_WAIT_CYCLES $end
$var reg 8 $ a_bi [7:0] $end
$var reg 8 % b_bi [7:0] $end
$var reg 1 & clk $end
$var reg 1 ' rst_i $end
$var reg 1 ( start_i $end
$scope module DUT $end
$var wire 8 ) a_bi [7:0] $end
$var wire 8 * b_bi [7:0] $end
$var wire 1 & clk_i $end
$var wire 1 + mult_start $end
$var wire 1 ' rst_i $end
$var wire 1 , sqrt_start $end
$var wire 1 ( start_i $end
$var wire 8 - sqrt_result [7:0] $end
$var wire 1 . sqrt_busy $end
$var wire 16 / result [15:0] $end
$var wire 1 0 mult_busy $end
$var wire 1 " done $end
$var parameter 2 1 CALC_MULT $end
$var parameter 2 2 CALC_SQRT $end
$var parameter 2 3 DONE_STATE $end
$var parameter 2 4 IDLE $end
$var reg 2 5 state [1:0] $end
$scope module mult_inst $end
$var wire 8 6 a_bi [7:0] $end
$var wire 1 0 busy_o $end
$var wire 1 & clk_i $end
$var wire 8 7 part_sum [7:0] $end
$var wire 1 ' rst_i $end
$var wire 1 + start_i $end
$var wire 16 8 shifted_part_sum [15:0] $end
$var wire 3 9 end_step [2:0] $end
$var wire 8 : b_bi [7:0] $end
$var parameter 32 ; IDLE $end
$var parameter 32 < WORK $end
$var reg 8 = a [7:0] $end
$var reg 8 > b [7:0] $end
$var reg 3 ? ctr [2:0] $end
$var reg 16 @ part_res [15:0] $end
$var reg 1 A state $end
$var reg 16 B y_bo [15:0] $end
$upscope $end
$scope module sqrt_inst $end
$var wire 1 & clk_i $end
$var wire 1 ' rst_i $end
$var wire 1 , start_i $end
$var wire 8 C x_bi [7:0] $end
$var wire 1 . busy_o $end
$var parameter 1 D IDLE $end
$var parameter 1 E WORK $end
$var reg 8 F b [7:0] $end
$var reg 8 G m [7:0] $end
$var reg 1 . state $end
$var reg 8 H x [7:0] $end
$var reg 8 I y [7:0] $end
$var reg 8 J y_bo [7:0] $end
$upscope $end
$upscope $end
$scope task test $end
$var reg 8 K a [7:0] $end
$var reg 8 L b [7:0] $end
$var reg 16 M expected [15:0] $end
$var integer 32 N cycles [31:0] $end
$var integer 32 O num [31:0] $end
$upscope $end
$upscope $end
$enddefinitions $end
$comment Show the parameter values. $end
$dumpall
1E
0D
b1 <
b0 ;
b0 4
b11 3
b1 2
b10 1
b11111010000 #
$end
#0
$dumpvars
bx O
bx N
bx M
bx L
bx K
bx J
bx I
bx H
bx G
bx F
b0 C
bx B
xA
bx @
bx ?
bx >
bx =
bx :
b0x 9
bx 8
bx 7
b0 6
b0 5
x0
bx /
x.
bx -
0,
0+
b0 *
b0 )
0(
1'
0&
b0 %
b0 $
0"
bx !
$end
#5000
b0 -
b0 :
b0 J
b0 G
b0 I
b0 H
0.
00
0A
b0 !
b0 /
b0 B
b0 @
b0xxxxxxxx 8
b0 9
b0 ?
1&
#10000
0&
#15000
0'
1&
#20000
0&
#25000
b10000 %
b10000 *
b10000 C
b100 $
b100 )
b100 6
b1 O
b10000 M
b10000 L
b100 K
1&
#30000
0&
#35000
1,
1(
1&
#40000
0&
#45000
b1000000 G
b10000 H
1.
b1 5
0,
b0 N
0(
1&
#50000
0&
#55000
b10000 G
b1000000 F
b1 N
1&
#60000
0&
#65000
b10 N
b100 G
b10000 I
b0 H
b10000 F
1&
#70000
0&
#75000
b1 G
b1000 I
b10100 F
b11 N
1&
#80000
0&
#85000
b100 N
b0 G
b100 I
b1001 F
1&
#90000
0&
#95000
1+
0.
b100 -
b100 :
b100 J
b101 N
1&
#100000
0&
#105000
b0 8
b0 7
0+
b100 >
b100 =
10
1A
b10 5
b110 N
1&
#110000
0&
#115000
b1 ?
b111 N
1&
#120000
0&
#125000
b10000 8
b100 7
b10 ?
b1000 N
1&
#130000
0&
#135000
b0 7
b0 8
b11 ?
b10000 @
b1001 N
1&
#140000
0&
#145000
b100 ?
b1010 N
1&
#150000
0&
#155000
b101 ?
b1011 N
1&
#160000
0&
#165000
b110 ?
b1100 N
1&
#170000
0&
#175000
b1 9
b111 ?
b1101 N
1&
#180000
0&
#185000
b0 9
b0 ?
b10000 !
b10000 /
b10000 B
00
0A
b1110 N
1&
#190000
0&
#195000
1"
b11 5
b1111 N
1&
#200000
0&
#205000
0"
b0 5
b10000 N
1&
#210000
0&
#215000
1&
#220000
0&
#225000
b11001 %
b11001 *
b11001 C
b101 $
b101 )
b101 6
b10 O
b11001 M
b11001 L
b101 K
1&
#230000
0&
#235000
1,
1(
1&
#240000
0&
#245000
b0 -
b0 :
b0 J
b1000000 G
b0 I
b11001 H
1.
b1 5
0,
b0 N
0(
1&
#250000
0&
#255000
b10000 G
b1000000 F
b1 N
1&
#260000
0&
#265000
b10 N
b100 G
b10000 I
b1001 H
b10000 F
1&
#270000
0&
#275000
b1 G
b1000 I
b10100 F
b11 N
1&
#280000
0&
#285000
b100 N
b0 G
b0 H
b101 I
b1001 F
1&
#290000
0&
#295000
1+
0.
b101 -
b101 :
b101 J
b101 N
1&
#300000
0&
#305000
b101 8
b101 7
0+
b0 @
b101 >
b101 =
10
1A
b10 5
b110 N
1&
#310000
0&
#315000
b0 7
b0 8
b1 ?
b101 @
b111 N
1&
#320000
0&
#325000
b10100 8
b101 7
b10 ?
b1000 N
1&
#330000
0&
#335000
b0 7
b0 8
b11 ?
b11001 @
b1001 N
1&
#340000
0&
#345000
b100 ?
b1010 N
1&
#350000
0&
#355000
b101 ?
b1011 N
1&
#360000
0&
#365000
b110 ?
b1100 N
1&
#370000
0&
#375000
b1 9
b111 ?
b1101 N
1&
#380000
0&
#385000
b101 8
b101 7
b0 9
b0 ?
b11001 !
b11001 /
b11001 B
00
0A
b1110 N
1&
#390000
0&
#395000
1"
b11 5
b1111 N
1&
#400000
0&
#405000
0"
b0 5
b10000 N
1&
#410000
0&
#415000
1&
#420000
0&
#425000
b10 %
b10 *
b10 C
b11 $
b11 )
b11 6
b11 O
b11 M
b10 L
b11 K
1&
#430000
0&
#435000
1,
1(
1&
#440000
0&
#445000
b0 -
b0 :
b0 J
b1000000 G
b0 I
b10 H
1.
b1 5
0,
b0 N
0(
1&
#450000
0&
#455000
b10000 G
b1000000 F
b1 N
1&
#460000
0&
#465000
b10 N
b100 G
b10000 F
1&
#470000
0&
#475000
b1 G
b100 F
b11 N
1&
#480000
0&
#485000
b100 N
b0 G
b1 I
b1 H
b1 F
1&
#490000
0&
#495000
1+
0.
b1 -
b1 :
b1 J
b101 N
1&
#500000
0&
#505000
b11 8
b11 7
0+
b0 @
b1 >
b11 =
10
1A
b10 5
b110 N
1&
#510000
0&
#515000
b0 7
b0 8
b1 ?
b11 @
b111 N
1&
#520000
0&
#525000
b10 ?
b1000 N
1&
#530000
0&
#535000
b11 ?
b1001 N
1&
#540000
0&
#545000
b100 ?
b1010 N
1&
#550000
0&
#555000
b101 ?
b1011 N
1&
#560000
0&
#565000
b110 ?
b1100 N
1&
#570000
0&
#575000
b1 9
b111 ?
b1101 N
1&
#580000
0&
#585000
b11 8
b11 7
b0 9
b0 ?
b11 !
b11 /
b11 B
00
0A
b1110 N
1&
#590000
0&
#595000
1"
b11 5
b1111 N
1&
#600000
0&
#605000
0"
b0 5
b10000 N
1&
#610000
0&
#615000
1&
#620000
0&
#625000
b1100100 %
b1100100 *
b1100100 C
b0 $
b0 )
b0 6
b100 O
b0 M
b1100100 L
b0 K
1&
#630000
0&
#635000
1,
1(
1&
#640000
0&
#645000
b0 -
b0 :
b0 J
b1000000 G
b0 I
b1100100 H
1.
b1 5
0,
b0 N
0(
1&
#650000
0&
#655000
b10000 G
b1000000 I
b100100 H
b1000000 F
b1 N
1&
#660000
0&
#665000
b10 N
b100 G
b100000 I
b1010000 F
1&
#670000
0&
#675000
b1 G
b0 H
b10100 I
b100100 F
b11 N
1&
#680000
0&
#685000
b100 N
b0 G
b1010 I
b10101 F
1&
#690000
0&
#695000
1+
0.
b1010 -
b1010 :
b1010 J
b101 N
1&
#700000
0&
#705000
b0 8
b0 7
0+
b0 @
b1010 >
b0 =
10
1A
b10 5
b110 N
1&
#710000
0&
#715000
b1 ?
b111 N
1&
#720000
0&
#725000
b10 ?
b1000 N
1&
#730000
0&
#735000
b11 ?
b1001 N
1&
#740000
0&
#745000
b100 ?
b1010 N
1&
#750000
0&
#755000
b101 ?
b1011 N
1&
#760000
0&
#765000
b110 ?
b1100 N
1&
#770000
0&
#775000
b1 9
b111 ?
b1101 N
1&
#780000
0&
#785000
b0 9
b0 ?
b0 !
b0 /
b0 B
00
0A
b1110 N
1&
#790000
0&
#795000
1"
b11 5
b1111 N
1&
#800000
0&
#805000
0"
b0 5
b10000 N
1&
#810000
0&
#815000
1&
#820000
0&
#825000
b0 %
b0 *
b0 C
b1000 $
b1000 )
b1000 6
b101 O
b0 L
b1000 K
1&
#830000
0&
#835000
1,
1(
1&
#840000
0&
#845000
b0 -
b0 :
b0 J
b1000000 G
b0 I
1.
b1 5
0,
b0 N
0(
1&
#850000
0&
#855000
b10000 G
b1000000 F
b1 N
1&
#860000
0&
#865000
b10 N
b100 G
b10000 F
1&
#870000
0&
#875000
b1 G
b100 F
b11 N
1&
#880000
0&
#885000
b100 N
b0 G
b1 F
1&
#890000
0&
#895000
1+
0.
b101 N
1&
#900000
0&
#905000
0+
b0 >
b1000 =
10
1A
b10 5
b110 N
1&
#910000
0&
#915000
b1 ?
b111 N
1&
#920000
0&
#925000
b10 ?
b1000 N
1&
#930000
0&
#935000
b11 ?
b1001 N
1&
#940000
0&
#945000
b100 ?
b1010 N
1&
#950000
0&
#955000
b101 ?
b1011 N
1&
#960000
0&
#965000
b110 ?
b1100 N
1&
#970000
0&
#975000
b1 9
b111 ?
b1101 N
1&
#980000
0&
#985000
b0 9
b0 ?
00
0A
b1110 N
1&
#990000
0&
#995000
1"
b11 5
b1111 N
1&
#1000000
0&
#1005000
0"
b0 5
b10000 N
1&
#1010000
0&
#1015000
1&
#1020000
0&
#1025000
b1 %
b1 *
b1 C
b1 $
b1 )
b1 6
b110 O
b1 M
b1 L
b1 K
1&
#1030000
0&
#1035000
1,
1(
1&
#1040000
0&
#1045000
b1000000 G
b1 H
1.
b1 5
0,
b0 N
0(
1&
#1050000
0&
#1055000
b10000 G
b1000000 F
b1 N
1&
#1060000
0&
#1065000
b10 N
b100 G
b10000 F
1&
#1070000
0&
#1075000
b1 G
b100 F
b11 N
1&
#1080000
0&
#1085000
b100 N
b0 G
b1 I
b0 H
b1 F
1&
#1090000
0&
#1095000
1+
0.
b1 -
b1 :
b1 J
b101 N
1&
#1100000
0&
#1105000
b1 8
b1 7
0+
b1 >
b1 =
10
1A
b10 5
b110 N
1&
#1110000
0&
#1115000
b0 7
b0 8
b1 ?
b1 @
b111 N
1&
#1120000
0&
#1125000
b10 ?
b1000 N
1&
#1130000
0&
#1135000
b11 ?
b1001 N
1&
#1140000
0&
#1145000
b100 ?
b1010 N
1&
#1150000
0&
#1155000
b101 ?
b1011 N
1&
#1160000
0&
#1165000
b110 ?
b1100 N
1&
#1170000
0&
#1175000
b1 9
b111 ?
b1101 N
1&
#1180000
0&
#1185000
b1 8
b1 7
b0 9
b0 ?
b1 !
b1 /
b1 B
00
0A
b1110 N
1&
#1190000
0&
#1195000
1"
b11 5
b1111 N
1&
#1200000
0&
#1205000
0"
b0 5
b10000 N
1&
#1210000
0&
#1215000
1&
#1220000
0&
#1225000
b11111111 %
b11111111 *
b11111111 C
b11111111 $
b11111111 )
b11111111 6
b111 O
b111011110001 M
b11111111 L
b11111111 K
1&
#1230000
0&
#1235000
1,
1(
1&
#1240000
0&
#1245000
b0 -
b0 :
b0 J
b1000000 G
b0 I
b11111111 H
1.
b1 5
0,
b0 N
0(
1&
#1250000
0&
#1255000
b10000 G
b1000000 I
b10111111 H
b1000000 F
b1 N
1&
#1260000
0&
#1265000
b10 N
b100 G
b1101111 H
b110000 I
b1010000 F
1&
#1270000
0&
#1275000
b1 G
b111011 H
b11100 I
b110100 F
b11 N
1&
#1280000
0&
#1285000
b100 N
b0 G
b11110 H
b1111 I
b11101 F
1&
#1290000
0&
#1295000
1+
0.
b1111 -
b1111 :
b1111 J
b101 N
1&
#1300000
0&
#1305000
b11111111 8
b11111111 7
0+
b0 @
b1111 >
b11111111 =
10
1A
b10 5
b110 N
1&
#1310000
0&
#1315000
b111111110 8
b1 ?
b11111111 @
b111 N
1&
#1320000
0&
#1325000
b1111111100 8
b10 ?
b1011111101 @
b1000 N
1&
#1330000
0&
#1335000
b11111111000 8
b11 ?
b11011111001 @
b1001 N
1&
#1340000
0&
#1345000
b0 7
b0 8
b100 ?
b111011110001 @
b1010 N
1&
#1350000
0&
#1355000
b101 ?
b1011 N
1&
#1360000
0&
#1365000
b110 ?
b1100 N
1&
#1370000
0&
#1375000
b1 9
b111 ?
b1101 N
1&
#1380000
0&
#1385000
b11111111 8
b11111111 7
b0 9
b0 ?
b111011110001 !
b111011110001 /
b111011110001 B
00
0A
b1110 N
1&
#1390000
0&
#1395000
1"
b11 5
b1111 N
1&
#1400000
0&
#1405000
0"
b0 5
b10000 N
1&
#1410000
0&
#1415000
1&
#1420000
0&
#1425000
b100 %
b100 *
b100 C
b1100100 $
b1100100 )
b1100100 6
b1000 O
b11001000 M
b100 L
b1100100 K
1&
#1430000
0&
#1435000
1,
1(
1&
#1440000
0&
#1445000
b0 -
b0 :
b0 J
b1000000 G
b0 I
b100 H
1.
b1 5
0,
b0 N
0(
1&
#1450000
0&
#1455000
b10000 G
b1000000 F
b1 N
1&
#1460000
0&
#1465000
b10 N
b100 G
b10000 F
1&
#1470000
0&
#1475000
b1 G
b100 I
b0 H
b100 F
b11 N
1&
#1480000
0&
#1485000
b100 N
b0 G
b10 I
b101 F
1&
#1490000
0&
#1495000
1+
0.
b10 -
b10 :
b10 J
b101 N
1&
#1500000
0&
#1505000
b0 8
b0 7
0+
b0 @
b10 >
b1100100 =
10
1A
b10 5
b110 N
1&
#1510000
0&
#1515000
b11001000 8
b1100100 7
b1 ?
b111 N
1&
#1520000
0&
#1525000
b0 7
b0 8
b10 ?
b11001000 @
b1000 N
1&
#1530000
0&
#1535000
b11 ?
b1001 N
1&
#1540000
0&
#1545000
b100 ?
b1010 N
1&
#1550000
0&
#1555000
b101 ?
b1011 N
1&
#1560000
0&
#1565000
b110 ?
b1100 N
1&
#1570000
0&
#1575000
b1 9
b111 ?
b1101 N
1&
#1580000
0&
#1585000
b0 9
b0 ?
b11001000 !
b11001000 /
b11001000 B
00
0A
b1110 N
1&
#1590000
0&
#1595000
1"
b11 5
b1111 N
1&
#1600000
0&
#1605000
0"
b0 5
b10000 N
1&
#1610000
0&
#1615000
1&
#1620000
0&
#1625000
b11100001 %
b11100001 *
b11100001 C
b10 $
b10 )
b10 6
b1001 O
b11110 M
b11100001 L
b10 K
1&
#1630000
0&
#1635000
1,
1(
1&
#1640000
0&
#1645000
b0 -
b0 :
b0 J
b1000000 G
b0 I
b11100001 H
1.
b1 5
0,
b0 N
0(
1&
#1650000
0&
#1655000
b10000 G
b1000000 I
b10100001 H
b1000000 F
b1 N
1&
#1660000
0&
#1665000
b10 N
b100 G
b1010001 H
b110000 I
b1010000 F
1&
#1670000
0&
#1675000
b1 G
b11101 H
b11100 I
b110100 F
b11 N
1&
#1680000
0&
#1685000
b100 N
b0 G
b0 H
b1111 I
b11101 F
1&
#1690000
0&
#1695000
1+
0.
b1111 -
b1111 :
b1111 J
b101 N
1&
#1700000
0&
#1705000
b10 8
b10 7
0+
b0 @
b1111 >
b10 =
10
1A
b10 5
b110 N
1&
#1710000
0&
#1715000
b100 8
b1 ?
b10 @
b111 N
1&
#1720000
0&
#1725000
b1000 8
b10 ?
b110 @
b1000 N
1&
#1730000
0&
#1735000
b10000 8
b11 ?
b1110 @
b1001 N
1&
#1740000
0&
#1745000
b0 7
b0 8
b100 ?
b11110 @
b1010 N
1&
#1750000
0&
#1755000
b101 ?
b1011 N
1&
#1760000
0&
#1765000
b110 ?
b1100 N
1&
#1770000
0&
#1775000
b1 9
b111 ?
b1101 N
1&
#1780000
0&
#1785000
b10 8
b10 7
b0 9
b0 ?
b11110 !
b11110 /
b11110 B
00
0A
b1110 N
1&
#1790000
0&
#1795000
1"
b11 5
b1111 N
1&
#1800000
0&
#1805000
0"
b0 5
b10000 N
1&
#1810000
0&
#1815000
1&
#1820000
0&
#1825000
b1000000 %
b1000000 *
b1000000 C
b110 $
b110 )
b110 6
b1010 O
b110000 M
b1000000 L
b110 K
1&
#1830000
0&
#1835000
1,
1(
1&
#1840000
0&
#1845000
b0 -
b0 :
b0 J
b1000000 G
b0 I
b1000000 H
1.
b1 5
0,
b0 N
0(
1&
#1850000
0&
#1855000
b10000 G
b1000000 I
b0 H
b1000000 F
b1 N
1&
#1860000
0&
#1865000
b10 N
b100 G
b100000 I
b1010000 F
1&
#1870000
0&
#1875000
b1 G
b10000 I
b100100 F
b11 N
1&
#1880000
0&
#1885000
b100 N
b0 G
b1000 I
b10001 F
1&
#1890000
0&
#1895000
1+
0.
b1000 -
b1000 :
b1000 J
b101 N
1&
#1900000
0&
#1905000
b0 8
b0 7
0+
b0 @
b1000 >
b110 =
10
1A
b10 5
b110 N
1&
#1910000
0&
#1915000
b1 ?
b111 N
1&
#1920000
0&
#1925000
b10 ?
b1000 N
1&
#1930000
0&
#1935000
b110000 8
b110 7
b11 ?
b1001 N
1&
#1940000
0&
#1945000
b0 7
b0 8
b100 ?
b110000 @
b1010 N
1&
#1950000
0&
#1955000
b101 ?
b1011 N
1&
#1960000
0&
#1965000
b110 ?
b1100 N
1&
#1970000
0&
#1975000
b1 9
b111 ?
b1101 N
1&
#1980000
0&
#1985000
b0 9
b0 ?
b110000 !
b110000 /
b110000 B
00
0A
b1110 N
1&
#1990000
0&
#1995000
1"
b11 5
b1111 N
1&
#2000000
0&
#2005000
0"
b0 5
b10000 N
1&
